\relax 
\providecommand\hyper@newdestlabel[2]{}
\providecommand\HyperFirstAtBeginDocument{\AtBeginDocument}
\HyperFirstAtBeginDocument{\ifx\hyper@anchor\@undefined
\global\let\oldcontentsline\contentsline
\gdef\contentsline#1#2#3#4{\oldcontentsline{#1}{#2}{#3}}
\global\let\oldnewlabel\newlabel
\gdef\newlabel#1#2{\newlabelxx{#1}#2}
\gdef\newlabelxx#1#2#3#4#5#6{\oldnewlabel{#1}{{#2}{#3}}}
\AtEndDocument{\ifx\hyper@anchor\@undefined
\let\contentsline\oldcontentsline
\let\newlabel\oldnewlabel
\fi}
\fi}
\global\let\hyper@last\relax 
\gdef\HyperFirstAtBeginDocument#1{#1}
\providecommand\HyField@AuxAddToFields[1]{}
\providecommand\HyField@AuxAddToCoFields[2]{}
\select@language{english}
\@writefile{toc}{\select@language{english}}
\@writefile{lof}{\select@language{english}}
\@writefile{lot}{\select@language{english}}
\newlabel{index::doc}{{}{1}{}{section*.2}{}}
\@writefile{toc}{\contentsline {chapter}{\numberline {1}Getting Started}{3}{chapter.1}}
\@writefile{lof}{\addvspace {10\p@ }}
\@writefile{lot}{\addvspace {10\p@ }}
\@writefile{loliteral-block}{\addvspace {10\p@ }}
\newlabel{intro:getting-started}{{1}{3}{Getting Started}{chapter.1}{}}
\newlabel{intro:welcome-to-dockdogs-australia-onsite-admin-help-s-documentation}{{1}{3}{Getting Started}{chapter.1}{}}
\newlabel{intro::doc}{{1}{3}{Getting Started}{chapter.1}{}}
\@writefile{toc}{\contentsline {chapter}{\numberline {2}Providing Basic Assistance To Handlers}{5}{chapter.2}}
\@writefile{lof}{\addvspace {10\p@ }}
\@writefile{lot}{\addvspace {10\p@ }}
\@writefile{loliteral-block}{\addvspace {10\p@ }}
\newlabel{basic-handler-assistance:providing-basic-assistance-to-handlers}{{2}{5}{Providing Basic Assistance To Handlers}{chapter.2}{}}
\newlabel{basic-handler-assistance::doc}{{2}{5}{Providing Basic Assistance To Handlers}{chapter.2}{}}
\@writefile{toc}{\contentsline {section}{\numberline {2.1}Assisting A Handler With Locating Their Username}{5}{section.2.1}}
\newlabel{basic-handler-assistance:assisting-a-handler-with-locating-their-username}{{2.1}{5}{Assisting A Handler With Locating Their Username}{section.2.1}{}}
\@writefile{toc}{\contentsline {section}{\numberline {2.2}Assisting A Handler With Resetting Their Password}{5}{section.2.2}}
\newlabel{basic-handler-assistance:assisting-a-handler-with-resetting-their-password}{{2.2}{5}{Assisting A Handler With Resetting Their Password}{section.2.2}{}}
\@writefile{toc}{\contentsline {section}{\numberline {2.3}Assisting A Handler With Editing Their Profile}{5}{section.2.3}}
\newlabel{basic-handler-assistance:assisting-a-handler-with-editing-their-profile}{{2.3}{5}{Assisting A Handler With Editing Their Profile}{section.2.3}{}}
\@writefile{toc}{\contentsline {section}{\numberline {2.4}Assisting A Handler With Changing Their Password}{6}{section.2.4}}
\newlabel{basic-handler-assistance:assisting-a-handler-with-changing-their-password}{{2.4}{6}{Assisting A Handler With Changing Their Password}{section.2.4}{}}
\@writefile{toc}{\contentsline {chapter}{\numberline {3}Assisting A Handler With Teams}{7}{chapter.3}}
\@writefile{lof}{\addvspace {10\p@ }}
\@writefile{lot}{\addvspace {10\p@ }}
\@writefile{loliteral-block}{\addvspace {10\p@ }}
\newlabel{teams:assisting-a-handler-with-teams}{{3}{7}{Assisting A Handler With Teams}{chapter.3}{}}
\newlabel{teams::doc}{{3}{7}{Assisting A Handler With Teams}{chapter.3}{}}
\@writefile{toc}{\contentsline {section}{\numberline {3.1}Assisting A Handler With Adding a Team (Dog)}{7}{section.3.1}}
\newlabel{teams:assisting-a-handler-with-adding-a-team-dog}{{3.1}{7}{Assisting A Handler With Adding a Team (Dog)}{section.3.1}{}}
\@writefile{toc}{\contentsline {chapter}{\numberline {4}Registering For Events}{9}{chapter.4}}
\@writefile{lof}{\addvspace {10\p@ }}
\@writefile{lot}{\addvspace {10\p@ }}
\@writefile{loliteral-block}{\addvspace {10\p@ }}
\newlabel{event-registration::doc}{{4}{9}{Registering For Events}{chapter.4}{}}
\newlabel{event-registration:registering-for-events}{{4}{9}{Registering For Events}{chapter.4}{}}
\@writefile{toc}{\contentsline {section}{\numberline {4.1}Handler Event Registration Walkthrough Video}{9}{section.4.1}}
\newlabel{event-registration:handler-event-registration-walkthrough-video}{{4.1}{9}{Handler Event Registration Walkthrough Video}{section.4.1}{}}
\@writefile{toc}{\contentsline {section}{\numberline {4.2}Step By Step Event Registration}{9}{section.4.2}}
\newlabel{event-registration:step-by-step-event-registration}{{4.2}{9}{Step By Step Event Registration}{section.4.2}{}}
